WeightClassKg,Place,Name,Team,BodyweightKg,Bench1Kg,Bench2Kg,Bench3Kg,Best3BenchKg,TotalKg,Event,Equipment,Sex,Division
53.98,1,Carson Padgett,Baker County,53.07,83.91,88.45,-92.99,88.45,88.45,B,Raw,M,Class 1A
53.98,2,Narongsak Kunsuwan,Ridgeview,53.98,79.38,83.91,88.45,88.45,88.45,B,Raw,M,Class 1A
53.98,3,Skyler Fritz,Suwannee,53.52,63.5,70.31,-72.57,70.31,70.31,B,Raw,M,Class 1A
53.98,4,Bradley Saam,Ridgeview,52.16,63.5,68.04,70.31,70.31,70.31,B,Raw,M,Class 1A
53.98,5,Jamoree Simmons,Taylor,52.44,-63.5,-63.5,63.5,63.5,63.5,B,Raw,M,Class 1A
53.98,6,Maurice Hewitt,Bradford,50.17,63.5,68.04,70.31,70.31,70.31,B,Raw,M,Class 1A
58.51,1,Chase Clark,Suwannee,58.15,97.52,102.06,,102.06,102.06,B,Raw,M,Class 1A
58.51,2,Dialo Josh,Baker County,58.06,97.52,102.06,104.33,104.33,104.33,B,Raw,M,Class 1A
58.51,3,Isaac Henry,Suwannee,58.51,83.91,88.45,92.99,92.99,92.99,B,Raw,M,Class 1A
58.51,4,Derion Staten,Madison,57.79,99.79,-102.06,-102.06,99.79,99.79,B,Raw,M,Class 1A
58.51,5,DJ Duran,Baker County,57.15,81.65,86.18,88.45,88.45,88.45,B,Raw,M,Class 1A
58.51,6,Matt Lava,Orange Park,57.88,77.11,79.38,-81.65,79.38,79.38,B,Raw,M,Class 1A
63.05,1,Marcus Dialo,Baker County,62.69,113.4,120.2,-124.74,120.2,120.2,B,Raw,M,Class 1A
63.05,2,Chase Crawford,Union,62.87,108.86,111.13,-115.67,111.13,111.13,B,Raw,M,Class 1A
63.05,3,Brantley Roberson,Suwannee,62.23,86.18,92.99,-97.52,92.99,92.99,B,Raw,M,Class 1A
63.05,4,Ralando Grey,Ridgeview,62.87,92.99,97.52,102.06,102.06,102.06,B,Raw,M,Class 1A
63.05,5,Sencere Gilbert,Clay,61.6,86.18,90.72,95.25,95.25,95.25,B,Raw,M,Class 1A
63.05,6,Phennis Jennings,Madison,62.87,90.72,95.25,-97.52,95.25,95.25,B,Raw,M,Class 1A
69.85,1,John Green,Baker County,69.31,117.93,122.47,124.74,124.74,124.74,B,Raw,M,Class 1A
69.85,2,Jaiden Turner,Ridgeview,69.4,92.99,97.52,-99.79,97.52,97.52,B,Raw,M,Class 1A
69.85,3,Tyrik Oliver,Bradford,69.76,97.52,102.06,-106.59,102.06,102.06,B,Raw,M,Class 1A
69.85,4,Ryan Heggood,Orange Park,68.4,104.33,108.86,-113.4,108.86,108.86,B,Raw,M,Class 1A
69.85,5,Caleb Ragan,Suwannee,67.59,99.79,102.06,-106.59,102.06,102.06,B,Raw,M,Class 1A
69.85,6,Ian McGowan,Bradford,69.76,-90.72,90.72,-97.52,90.72,90.72,B,Raw,M,Class 1A
76.66,1,Dalton Simon,Baker County,73.48,156.49,163.29,167.83,167.83,167.83,B,Raw,M,Class 1A
76.66,2,Zion Barber,Bradford,75.75,142.88,151.95,-156.49,151.95,151.95,B,Raw,M,Class 1A
76.66,3,William Bloodsaw,Baker County,71.76,133.81,140.61,142.88,142.88,142.88,B,Raw,M,Class 1A
76.66,4,Tarro Ward,Bradford,72.48,127.01,133.81,140.61,140.61,140.61,B,Raw,M,Class 1A
76.66,5,Carl Otero,Eagle's View,73.39,124.74,127.01,131.54,131.54,131.54,B,Raw,M,Class 1A
76.66,6,Kiaran Turner,Ridgeview,75.66,108.86,113.4,117.93,117.93,117.93,B,Raw,M,Class 1A
83.01,1,Marcaun Robinson,Clay,82.92,142.88,151.95,-154.22,151.95,151.95,B,Raw,M,Class 1A
83.01,2,Cade Johnson,Taylor,79.38,117.93,122.47,-124.74,122.47,122.47,B,Raw,M,Class 1A
83.01,3,Paige Seth,Baker County,79.02,122.47,129.27,133.81,133.81,133.81,B,Raw,M,Class 1A
83.01,4,Anthony Rootolo,Trinity,80.29,131.54,138.35,142.88,142.88,142.88,B,Raw,M,Class 1A
83.01,5,Trent Coleman,Ridgeview,81.74,127.01,-131.54,131.54,131.54,131.54,B,Raw,M,Class 1A
83.01,6,Wilguens Dorvillus,Clay,81.56,124.74,129.27,131.54,131.54,131.54,B,Raw,M,Class 1A
90.26,1,Laetres Bell,Madison,89.45,167.83,174.63,-179.17,174.63,174.63,B,Raw,M,Class 1A
90.26,2,David Araujo,Orange Park,88,133.81,138.35,142.88,142.88,142.88,B,Raw,M,Class 1A
90.26,3,Brandon Combs,Baker County,88.72,133.81,138.35,142.88,142.88,142.88,B,Raw,M,Class 1A
90.26,4,Corey Dryden,Fort White,89.09,124.74,131.54,136.08,136.08,136.08,B,Raw,M,Class 1A
90.26,5,Deontrai Purce,CC Christian,89.63,127.01,131.54,-136.08,131.54,131.54,B,Raw,M,Class 1A
90.26,6,Christian Swilley,Clay,85.28,113.4,117.93,-122.47,117.93,117.93,B,Raw,M,Class 1A
99.34,1,Kareem Mixon,CC Christian,91.17,133.81,138.35,142.88,142.88,142.88,B,Raw,M,Class 1A
99.34,2,Kwame Scott,Suwannee,98.61,131.54,138.35,142.88,142.88,142.88,B,Raw,M,Class 1A
99.34,3,Jeremy Sims,Clay,93.62,124.74,131.54,136.08,136.08,136.08,B,Raw,M,Class 1A
99.34,4,Tyler Huff,Ridgeview,94.71,108.86,113.4,-115.67,113.4,113.4,B,Raw,M,Class 1A
99.34,5,Ben Anderson,Baker County,96.71,117.93,122.47,124.74,124.74,124.74,B,Raw,M,Class 1A
99.34,6,Dawson Smith,Ridgeview,97.7,111.13,115.67,117.93,117.93,117.93,B,Raw,M,Class 1A
107.96,1,Cameron Brown,Madison,101.97,188.24,192.78,,192.78,192.78,B,Raw,M,Class 1A
107.96,2,Kyle Griffis,Baker County,107.05,156.49,161.03,-165.56,161.03,161.03,B,Raw,M,Class 1A
107.96,3,Jaquez Pelham,Fort White,100.43,136.08,142.88,-149.69,142.88,142.88,B,Raw,M,Class 1A
107.96,4,Wesley Hall,Baker County,106.69,124.74,129.27,133.81,133.81,133.81,B,Raw,M,Class 1A
107.96,5,Kendy Charles,Orange Park,105.96,120.2,124.74,-127.01,124.74,124.74,B,Raw,M,Class 1A
107.96,6,Taylor Torres,Suwannee,106.96,111.13,117.93,-122.47,117.93,117.93,B,Raw,M,Class 1A
107.96+,1,Jakob Alvarez,Bradford,150.87,206.38,210.92,-213.19,210.92,210.92,B,Raw,M,Class 1A
107.96+,2,Cooper Hodges,Baker County,139.53,158.76,165.56,167.83,167.83,167.83,B,Raw,M,Class 1A
107.96+,3,Agelu Nunu,Union,151.05,197.31,204.12,-210.92,204.12,204.12,B,Raw,M,Class 1A
107.96+,4,Jordan Luke,Bradford,165.38,161.03,165.56,172.37,172.37,172.37,B,Raw,M,Class 1A
107.96+,5,Terray Jones,Madison,135.71,165.56,170.1,174.63,174.63,174.63,B,Raw,M,Class 1A
107.96+,6,Tyler Burnsed,Baker County,138.44,154.22,161.03,165.56,165.56,165.56,B,Raw,M,Class 1A
