Name,Division,Equipment,WeightClassKg,BodyweightKg,Event,Best3SquatKg,Best3BenchKg,Best3DeadliftKg,TotalKg,Sex,Place
Stephen Slater,Open,Multi-ply,125,124.83,B,,324.32,,324.32,M,1
Stephen Slater,Open,Multi-ply,125,124.83,BD,,324.32,276.69,601.01,M,1
Colby Alford,Juniors,Multi-ply,100,99.79,SBD,362.87,235.87,265.35,864.09,M,1
Dillon Ledford,Open,Multi-ply,110,107.32,SBD,333.39,190.51,299.37,823.27,M,1
Frank Phillips,Masters 50-54,Multi-ply,118,115.12,SBD,340.19,226.8,272.16,839.15,M,1
Shelly Yates,Masters 40-44,Multi-ply,100,96.89,SBD,247.21,72.57,181.44,501.22,F,1
Shelly Yates,Open,Multi-ply,100,96.89,SBD,247.21,72.57,181.44,501.22,F,1
Frank Greene,Masters 40-44,Raw,140,126.37,B,,215.46,,215.46,M,1
Frank Greene,Open,Raw,140,126.37,B,,215.46,,215.46,M,3
Henry Mincey,Masters 45-49,Raw,140+,168.92,B,,219.99,,219.99,M,1
Henry Mincey,Open,Raw,140+,168.92,B,,219.99,,219.99,M,2
Matthew Market,Juniors,Raw,100,95.8,B,,154.22,,154.22,M,1
Matthew Market,Open,Raw,100,95.8,B,,154.22,,154.22,M,1
Travis Cochran,Open,Raw,140,126.64,B,,229.06,,229.06,M,2
Wade Matthews,Masters 45-49,Raw,140,131.72,B,,231.33,,231.33,M,1
Wade Matthews,Open,Raw,140,131.72,B,,231.33,,231.33,M,1
Chris LaRue,Submasters,Raw,100,97.7,B,,233.6,,233.6,M,1
Hook Hill,Masters 55-59,Raw,52,49.8,D,,,65.77,65.77,F,1
Hook Hill,Open,Raw,52,49.8,D,,,65.77,65.77,F,1
Jared Floyd,Open,Raw,110,106.87,D,,,183.7,183.7,M,1
Mike Cross #1,Masters 70-74,Raw,56,55.79,D,,,140.61,140.61,M,1
Timothy Boyce,Masters 40-44,Wraps,75,67.68,SBD,122.47,104.33,149.69,376.48,M,1
Evan Lemons,Open,Wraps,75,74.84,SBD,263.08,151.95,265.35,680.39,M,1
Stephanie Cochran,Teenage 13-15,Wraps,75,71.49,SBD,81.65,56.7,113.4,251.74,F,1
David Russell,Masters 45-49,Wraps,82.5,80.65,SBD,247.21,154.22,213.19,614.62,M,1
Jordan Berryhill,Open,Wraps,82.5,79.92,SBD,115.67,54.43,108.86,278.96,M,2
Kayla Harris,Teenage 16-17,Wraps,82.5,80.56,SBD,90.72,47.63,149.69,288.03,M,1
Rachel Frady,Open,Wraps,82.5,81.37,SBD,199.58,111.13,210.92,521.63,F,1
Ryan Kirkpatrick,Open,Wraps,82.5,79.83,SBD,188.24,147.42,226.8,562.45,M,1
Rusty North,Masters 45-49,Raw,90,88.27,B,,124.74,,124.74,M,1
Rusty North,Masters 45-49,Raw,90,88.27,D,,,197.31,197.31,M,1
Rusty North,Masters 45-49,Wraps,90,88.27,SBD,206.38,124.74,197.31,528.44,M,1
Rusty North,Masters 45-49,Raw,90,88.27,BD,,124.74,197.31,322.05,M,1
Rusty North,Masters 45-49,Wraps,90,88.27,S,206.38,,,206.38,M,1
Tom Amato,Masters 45-49,Wraps,100,96.98,SBD,170.1,138.35,217.72,526.17,M,1
Derek Bolin,Submasters,Wraps,110,109.04,SBD,260.82,170.1,249.48,680.39,M,1
Joseph Solis,Open,Wraps,110,108.95,SBD,240.4,149.69,274.42,664.51,M,1
Damian Solis,Open,Wraps,125,124.38,SBD,283.5,170.1,306.17,759.77,M,1
Jim Corvin,Masters 45-49,Wraps,125,121.2,SBD,285.76,170.1,226.8,682.66,M,1
Travis Rinnert,Masters 45-49,Wraps,125,124.38,SBD,217.72,172.37,240.4,630.49,M,2
Travis Rinnert,Open,Wraps,125,124.38,SBD,217.72,172.37,240.4,630.49,M,2
Stanley Thompson,Open,Wraps,140,134.72,SBD,317.51,219.99,274.42,811.93,M,1
Aaron Hatfield,Open,Raw,140+,158.58,B,,231.33,,231.33,M,1
Aaron Hatfield,Open,Wraps,140+,158.58,SBD,340.19,231.33,317.51,889.04,M,1
Brittany Berryhill,Open,Wraps,110,103.51,SBD,151.95,70.31,158.76,381.02,F,1
Elizbeth Farabee,Open,Raw,60,60,SBD,86.18,58.97,127.01,272.16,F,1
Kevin Cope,Masters 40-44,Raw,56,55.43,BD,,88.45,170.1,258.55,M,1
Carolyn Dickson,Masters 50-54,Raw,67.5,66.04,SBD,102.06,72.57,115.67,290.3,F,1
Logan Grenade,Juniors,Raw,67.5,64.32,SBD,174.63,129.27,192.78,496.68,M,1
Anthony Bolanos,Teenage 16-17,Raw,75,72.94,SBD,151.95,92.99,138.35,383.29,M,1
Brennan McDaniel,Teenage 16-17,Raw,75,74.66,SBD,192.78,127.01,215.46,535.24,F,1
Logan Hunt,Teenage 13-15,Raw,90,89.81,SBD,81.65,47.63,108.86,238.14,M,1
Lou Alex,Masters 40-44,Raw,90,88.09,SBD,138.35,104.33,174.63,417.3,F,1
Brandon Stover,Open,Raw,90,88.27,SBD,192.78,133.81,204.12,530.7,M,1
Brandon Lewter,Masters 40-44,Raw,100,99.34,SBD,124.74,104.33,190.51,419.57,M,1
Brandon Slaven,Open,Raw,100,94.62,SBD,206.38,151.95,226.8,585.13,M,1
Caleb Collins,Teenage 16-17,Raw,100,99.7,SBD,192.78,154.22,213.19,560.19,M,1
Joey Joyce,Submasters,Raw,100,99.25,SBD,170.1,124.74,181.44,476.27,M,1
Daven Ellison,Open,Raw,110,107.05,SBD,272.16,192.78,283.5,748.43,M,1
Dewayne Bustos,Juniors,Raw,110,108.95,SBD,233.6,154.22,254.01,641.83,M,1
Micah Hixson,Teenage 16-17,Raw,110,106.41,SBD,188.24,120.2,219.99,528.44,M,1
Hunter Robinson,Teenage 18-19,Raw,110,108.95,B,,122.47,,122.47,M,1
Hunter Robinson,Teenage 18-19,Raw,110,108.95,D,,,195.04,195.04,M,1
Hunter Robinson,Teenage 18-19,Raw,110,108.95,SBD,204.12,122.47,195.04,521.63,M,1
Hunter Robinson,Teenage 18-19,Raw,110,108.95,S,204.12,,,204.12,M,1
Garrett Anderson,Masters 45-49,Raw,125,124.47,SBD,226.8,179.17,249.48,655.44,M,1
Garrett Anderson,Police and Fire,Raw,125,124.47,SBD,226.8,179.17,249.48,655.44,M,1
Richard Wright,Open,Raw,125,118.75,SBD,344.73,229.06,333.39,907.18,M,1
Robert Loggins,Open,Raw,125,124.01,SBD,319.78,201.85,317.51,839.15,M,2
Jason Banks,Open,Raw,140,134.85,BD,,174.63,265.35,439.98,M,1
Lee Hands,Police and Fire,Raw,90,89.36,BD,,136.08,199.58,335.66,M,1
Terry Gant,Masters 50-54,Raw,140+,147.33,BD,,149.69,142.88,292.57,M,1
AJ Gant,Teenage 13-15,Raw,100,99.79,BD,,68.04,131.54,199.58,M,1
Pam Clabo,Masters 40-44,Raw,82.5,78.02,BD,,47.63,117.93,165.56,F,1
Evan Tomkins,Teenage 16-17,Raw,82.5,77.47,SBD,156.49,131.54,183.7,471.74,M,1
Leonard Bryson,Masters 75-79,Single-ply,67.5,65.23,B,,72.57,,72.57,M,1
Jody Lewis,Submasters,Single-ply,110,103.33,SBD,176.9,154.22,222.26,553.38,M,1
Mick Lloyd,Masters 40-44,Single-ply,110,104.87,SBD,188.24,124.74,158.76,471.74,M,1
Erik Heitter,Masters 45-49,Single-ply,110,104.6,B,,181.44,,181.44,M,1
Erik Heitter,Masters 45-49,Single-ply,110,104.6,SBD,183.7,181.44,233.6,598.74,M,1
Gregg Ramsdell,Masters 60-64,Single-ply,110,109.77,BD,,120.2,154.22,274.42,M,1
Gregg Ramsdell,Open,Single-ply,110,109.77,BD,,120.2,154.22,274.42,M,1
