Place,Sex,Name,Event,Division,WeightClassKg,Equipment,State,BodyweightKg,Squat1Kg,Squat2Kg,Squat3Kg,Best3SquatKg,Bench1Kg,Bench2Kg,Bench3Kg,Best3BenchKg,Deadlift1Kg,Deadlift2Kg,Deadlift3Kg,Best3DeadliftKg,TotalKg,BirthYear
1,F,Amanda Gard,D,FR-O,63,Raw,NY,62.1,,,,,,,,,60,62.5,67.5,67.5,67.5,1980
1,M,Adib Sarwar,SBD,MR-Jr,66,Raw,NY,65.5,-155,-172.5,172.5,172.5,85,92.5,-100,92.5,175,190,197.5,197.5,462.5,1994
2,M,Jacob Fields,SBD,MR-Jr,66,Raw,NY,63.9,140,147.5,-155,147.5,85,95,-100,95.0,165,175,-185,175.0,417.5,1992
1,M,Anthony Falcone,SBD,MR-Jr,74,Raw,NY,72,-200,200,212.5,212.5,132.5,-137.5,-137.5,132.5,242.5,247.5,252.5,252.5,597.5,1993
2,M,Russell Goldbach,SBD,MR-Jr,74,Raw,NY,73.8,192.5,202.5,212.5,212.5,125,130,-137.5,130.0,215,230,252.5,252.5,595,1993
3,M,Jason Yu,SBD,MR-Jr,74,Raw,NY,71.2,135,150,157.5,157.5,70,80,-87.5,80.0,160,170,180,180.0,417.5,1996
4,M,Robert Shaw,SBD,MR-Jr,74,Raw,NY,69.2,115,122.5,130,130.0,85,95,-102.5,95.0,137.5,145,-150,145.0,370,1993
1,M,Jonathan Marchese,SBD,MR-Jr,83,Raw,NY,79.3,172.5,185,195,195.0,-125,125,137.5,137.5,217.5,232.5,-240,232.5,565,1992
2,M,Matthew Savery,SBD,MR-Jr,83,Raw,NY,78.5,167.5,177.5,182.5,182.5,120,127.5,132.5,132.5,222.5,232.5,237.5,237.5,552.5,1993
3,M,Alec Kleyer,SBD,MR-Jr,83,Raw,NY,81.4,175,185,195,195.0,120,130,137.5,137.5,-197.5,197.5,207.5,207.5,540,1995
4,M,Jason Whyte,SBD,MR-Jr,83,Raw,NY,79.6,170,185,190,190.0,110,120,-125,120.0,212.5,-220,220,220.0,530,1994
1,M,Matthew Russelli,SBD,MR-Jr,93,Raw,NY,89.6,-142.5,142.5,157.5,157.5,82.5,92.5,102.5,102.5,142.5,157.5,172.5,172.5,432.5,1995
1,M,Damiano Cammarata,SBD,MR-Jr,105,Raw,NY,101.3,210,220,-227.5,220.0,132.5,137.5,142.5,142.5,225,235,-245,235.0,597.5,1993
1,M,Richard Acosta,SBD,MR-M1,120,Raw,NY,112,150,160,170,170.0,127.5,135,137.5,137.5,212.5,227.5,-232.5,227.5,535,1967
1,M,Victor Lai,SBD,MR-O,74,Raw,NY,72.7,150,160,165,165.0,100,105,-110,105.0,187.5,195,-202.5,195.0,465,1986
2,M,Kevin Thomas,SBD,MR-O,74,Raw,NY,72,115,122.5,127.5,127.5,77.5,82.5,-87.5,82.5,142.5,150,160,160.0,370,1989
3,M,William Weaver,SBD,MR-O,74,Raw,NY,70.4,105,110,120,120.0,62.5,65,-70,65.0,157.5,165,177.5,177.5,362.5,1993
1,M,Frank Donlon,SBD,MR-O,83,Raw,NY,81.7,202.5,207.5,215,215.0,130,137.5,142.5,142.5,-240,242.5,252.5,252.5,610,1989
2,M,Kevin Guerrero,SBD,MR-O,83,Raw,NY,81,185,200,207.5,207.5,142.5,150,-155,150.0,227.5,242.5,250,250.0,607.5,1992
3,M,Joseph Mallit,SBD,MR-O,83,Raw,NY,82,185,-192.5,-192.5,185.0,120,-122.5,-122.5,120.0,220,225,-230,225.0,530,1985
4,M,Vincent Crupi,SBD,MR-O,83,Raw,NY,79,175,190,-202.5,190.0,115,122.5,-130,122.5,180,195,-220,195.0,507.5,1991
5,M,Andrew Esposito,SBD,MR-O,83,Raw,NY,77.8,150,160,165,165.0,80,95,105,105.0,190,195,-205,195.0,465,1986
6,M,Michael Esposito,SBD,MR-O,83,Raw,NY,81.6,150,157.5,-162.5,157.5,90,-102.5,105,105.0,170,180,190,190.0,452.5,1989
1,M,James Pastor,SBD,MR-O,93,Raw,NY,91.1,165,182.5,200,200.0,150,160,170,170.0,205,225,250,250.0,620,1987
2,M,Anthony Bevilacqua,SBD,MR-O,93,Raw,NY,90.8,212.5,220,225,225.0,155,-162.5,-162.5,155.0,215,222.5,235,235.0,615,1987
3,M,Williams Medearis,SBD,MR-O,93,Raw,NY,90.3,162.5,175,182.5,182.5,110,115,-122.5,115.0,190,205,215,215.0,512.5,1976
1,M,Joseph Kopito,SBD,MR-O,105,Raw,NY,98.5,215,225,-230,225.0,140,145,152.5,152.5,255,265,-272.5,265.0,642.5,1984
1,M,Valery Gladyshev,SBD,MR-O,120,Raw,NY,119.7,-245,-245,245,245.0,-160,175,-182.5,175.0,240,260,-280,260.0,680,1988
1,M,Steven Gassert,SBD,MR-T1,66,Raw,NY,62.2,142.5,152.5,,152.5,107.5,117.5,120,120.0,-150,155,162.5,162.5,435,2000
1,M,Luke Collins,SBD,MR-T2,66,Raw,NY,64.2,-125,-125,132.5,132.5,72.5,-77.5,-77.5,72.5,142.5,152.5,-162.5,152.5,357.5,2000
1,M,Tommy Nguyen,SBD,MR-T3,66,Raw,NY,64.8,117.5,125,140,140.0,77.5,85,92.5,92.5,165,-177.5,177.5,177.5,410,1998
2,M,Andy Huang #2,SBD,MR-T3,66,Raw,NY,61.9,110,120,125,125.0,82.5,87.5,-92.5,87.5,160,165,170,170.0,382.5,1996
1,M,Brian Zhang,SBD,MR-T3,74,Raw,NY,73.6,145,155,165,165.0,95,100,102.5,102.5,162.5,177.5,187.5,187.5,455,1998
1,M,Jimmy Chen,SBD,MR-T3,83,Raw,NY,82.2,147.5,160,167.5,167.5,-117.5,117.5,-120,117.5,175,187.5,200,200.0,485,1997
1,F,Sharon Kwong,SBD,FR-Jr,52,Raw,NY,50.3,85,92.5,-97.5,92.5,40,-50,-50,40.0,92.5,100,107.5,107.5,240,1992
1,F,Luisa Coutinho,SBD,FR-Jr,63,Raw,NY,63,115,122.5,-127.5,122.5,62.5,65,67.5,67.5,115,125,-130,125.0,315,1994
2,F,Brettany Tu,SBD,FR-Jr,63,Raw,NY,61.7,77.5,87.5,95,95.0,27.5,32.5,-37.5,32.5,87.5,100,105,105.0,232.5,1993
1,F,Janice Woerner,SBD,FR-M2,52,Raw,NY,51.6,87.5,90,-92.5,90.0,57.5,-60,-60,57.5,95,-97.5,,95.0,242.5,1958
1,F,Anita Sher,SBD,FR-M2,63,Raw,NY,61.1,70,80,-90,80.0,60,-62.5,62.5,62.5,105,110,117.5,117.5,260,1964
1,F,Holly Frisbee,SBD,FR-O,57,Raw,NY,55.2,75,82.5,85,85.0,-32.5,35,-42.5,35.0,85,92.5,-95,92.5,212.5,1980
1,F,Luisa Coutinho,SBD,FR-O,63,Raw,NY,63,115,122.5,-127.5,122.5,62.5,65,67.5,67.5,115,125,-130,125.0,315,1994
2,F,Yuan-Chien Yang,SBD,FR-O,63,Raw,NY,61.2,85,95,100,100.0,40,45,50,50.0,130,142.5,-155,142.5,292.5,1982
1,F,Danielle Gold,SBD,FR-O,72,Raw,NY,71.6,132.5,142.5,152.5,152.5,70,75,80,80.0,147.5,160,-167.5,160.0,392.5,1983
2,F,Leah Wissow,SBD,FR-O,72,Raw,NY,70.5,120,125,127.5,127.5,65,67.5,-72.5,67.5,137.5,-147.5,-152.5,137.5,332.5,1988
3,F,Alyssa Smith,SBD,FR-O,72,Raw,MA,71,85,-95,-105,85.0,55,-60,-62.5,55.0,-105,107.5,112.5,112.5,252.5,1995
DQ,F,Jasmine Johnson,SBD,FR-O,72,Raw,NY,66.5,-152.5,-152.5,-152.5,,-65,-65,67.5,67.5,142.5,145,152.5,152.5,,1986
1,F,Ashley Nash,SBD,FR-O,84,Raw,NJ,83.7,132.5,142.5,160,160.0,67.5,70,-82.5,70.0,142.5,162.5,185,185.0,415,1989
2,F,Valerie Piazza,SBD,FR-O,84,Raw,NY,77.2,105,110,115,115.0,50,52.5,-57.5,52.5,132.5,140,147.5,147.5,315,1990
1,F,Tiffany C Trinh,SBD,FR-T3,47,Raw,NY,47,-75,82.5,-87.5,82.5,35,40,-47.5,40.0,80,87.5,95,95.0,217.5,1998
