Division,WeightClassKg,Place,Name,Team,BodyweightKg,Best3SquatKg,Best3BenchKg,Best3DeadliftKg,TotalKg,Equipment,Event,Sex
Girls,44.23,1,Jessica Duque,Hillsboro,40.73,86.18,38.56,97.52,222.26,Single-ply,SBD,F
Girls,44.23,2,Baylee Hall,West,44.23,83.91,34.02,83.91,201.85,Single-ply,SBD,F
Girls,44.23,3,Alexa Morones,Wills Point,44,83.91,31.75,81.65,197.31,Single-ply,SBD,F
Girls,44.23,4,Ayari Garcia,Corsicana,44.09,58.97,29.48,81.65,170.1,Single-ply,SBD,F
Girls,44.23,5,Bailey Martinez,Palmer,37.38,61.23,24.95,72.57,158.76,Single-ply,SBD,F
Girls,44.23,6,Jordan Clack,Kemp,43,47.63,24.95,54.43,127.01,Single-ply,SBD,F
Girls,47.85,1,Chesney Richards,Corsicana Mildred,46.99,90.72,63.5,102.06,256.28,Single-ply,SBD,F
Girls,47.85,2,Laura Perez,West,47.17,99.79,45.36,95.25,240.4,Single-ply,SBD,F
Girls,47.85,3,Kimberlie Lumsden,Wills Point,47.54,95.25,36.29,99.79,231.33,Single-ply,SBD,F
Girls,47.85,4,Angel Anderson,Mabank,45.36,90.72,43.09,83.91,217.72,Single-ply,SBD,F
Girls,47.85,5,Aislinn Venegas,Mexia,46.72,86.18,38.56,90.72,215.46,Single-ply,SBD,F
Girls,47.85,6,Ruth Marcos,Hillsboro,46.72,83.91,31.75,83.91,199.58,Single-ply,SBD,F
Girls,51.94,1,Reece Griffin,West,50.17,115.67,49.9,117.93,283.5,Single-ply,SBD,F
Girls,51.94,2,Ashlyn Kwast,West,51.07,111.13,49.9,111.13,272.16,Single-ply,SBD,F
Girls,51.94,3,Nikki Turner,Corsicana Mildred,51.62,79.38,56.7,113.4,249.48,Single-ply,SBD,F
Girls,51.94,4,Itzel Guille,Whitney,49.26,95.25,45.36,104.33,244.94,Single-ply,SBD,F
Girls,51.94,5,Jayla Anthonty,Mexia,49.35,95.25,47.63,90.72,233.6,Single-ply,SBD,F
Girls,51.94,6,Stephanie Thomas,Midlothian Heritage,51.53,90.72,43.09,95.25,229.06,Single-ply,SBD,F
Girls,51.94,7,Jozalyn Sewell,Blooming Grove,48.26,88.45,52.16,86.18,226.8,Single-ply,SBD,F
Girls,51.94,8,Molly Zagala,Palmer,50.71,72.57,38.56,102.06,213.19,Single-ply,SBD,F
Girls,51.94,9,Araceli Solis,Royse City,50.17,77.11,29.48,104.33,210.92,Single-ply,SBD,F
Girls,51.94,10,Laena Bodovsky,Hillsboro,48.44,79.38,38.56,81.65,199.58,Single-ply,SBD,F
Girls,51.94,11,Chloe Polansky,West,49.8,83.91,29.48,86.18,199.58,Single-ply,SBD,F
Girls,51.94,12,Mackenzie White,Whitney,49.35,65.77,40.82,88.45,195.04,Single-ply,SBD,F
Girls,51.94,13,Jessica Santoyo,Rice,50.44,72.57,36.29,70.31,179.17,Single-ply,SBD,F
Girls,51.94,14,Olivia Sullivan,Mabank,51.62,65.77,31.75,81.65,179.17,Single-ply,SBD,F
Girls,51.94,15,Madison Rodriguez,Itasca,51.89,72.57,31.75,74.84,179.17,Single-ply,SBD,F
Girls,51.94,16,Abigale Elkin,Blooming Grove,50.89,70.31,31.75,63.5,165.56,Single-ply,SBD,F
Girls,51.94,17,Q'Mora Walker,Dallas Life Oak Cliff,50.44,47.63,20.41,56.7,124.74,Single-ply,SBD,F
Girls,56.02,1,Kaityn Brown,Italy,54.98,127.01,65.77,127.01,319.78,Single-ply,SBD,F
Girls,56.02,2,Triniti Vidrine,West,53.8,127.01,61.23,122.47,310.71,Single-ply,SBD,F
Girls,56.02,3,Bene Martinez,Hillsboro,55.7,122.47,63.5,113.4,299.37,Single-ply,SBD,F
Girls,56.02,4,Armonie Haywood,Hillsboro,55.43,108.86,54.43,115.67,278.96,Single-ply,SBD,F
Girls,56.02,5,Deandra McLennan,Dawson,53.8,106.59,52.16,108.86,267.62,Single-ply,SBD,F
Girls,56.02,6,Kaylee King,Wills Point,53.8,104.33,54.43,106.59,265.35,Single-ply,SBD,F
Girls,56.02,7,Kelsey Creech,Hillsboro,55.97,106.59,54.43,92.99,254.01,Single-ply,SBD,F
Girls,56.02,8,Maya Montes,West,53.98,99.79,43.09,108.86,251.74,Single-ply,SBD,F
Girls,56.02,9,Judith Marcos,Hillsboro,54.16,108.86,49.9,92.99,251.74,Single-ply,SBD,F
Girls,56.02,10,Isis Ibarra,Royse City,54.52,83.91,34.02,111.13,229.06,Single-ply,SBD,F
Girls,56.02,11,Mariah Sparkman,Blooming Grove,54.52,79.38,54.43,92.99,226.8,Single-ply,SBD,F
Girls,56.02,12,Ally Davison,Groesbeck,54.34,88.45,36.29,83.91,208.65,Single-ply,SBD,F
Girls,56.02,13,Nicole Wilson,Hubbard,54.52,83.91,43.09,72.57,199.58,Single-ply,SBD,F
Girls,56.02,14,C Orozco,Red Oak,53.07,68.04,36.29,86.18,190.51,Single-ply,SBD,F
Girls,56.02,15,Skylar e,Red Oak,54.16,58.97,24.95,77.11,161.03,Single-ply,SBD,F
Girls,56.02,16,K Boniol,Red Oak,52.62,52.16,34.02,72.57,158.76,Single-ply,SBD,F
Girls,56.02,17,Andrea Torres,Itasca,55.25,52.16,31.75,61.23,145.15,Single-ply,SBD,F
Girls,56.02,18,Savannah Turner,Dallas Life Oak Cliff,54.88,47.63,24.95,56.7,129.27,Single-ply,SBD,F
Girls,56.02,DQ,Bobbi Dunlap,Eustace,54.61,90.72,,,,Single-ply,SBD,F
Girls,56.02,DQ,Laura Dyer,Mabank,55.97,47.63,,,,Single-ply,SBD,F
Girls,60.1,1,Kaylan Williams,Royse City,59.87,108.86,40.82,129.27,278.96,Single-ply,SBD,F
Girls,60.1,2,Catherine Monk,Corsicana,58.88,106.59,45.36,115.67,267.62,Single-ply,SBD,F
Girls,60.1,3,Savanna Rhea,Blooming Grove,57.42,97.52,54.43,104.33,256.28,Single-ply,SBD,F
Girls,60.1,4,Ariel Garcia,Royse City,59.42,90.72,58.97,106.59,256.28,Single-ply,SBD,F
Girls,60.1,5,Anais Mancera,Palmer,58.97,92.99,47.63,104.33,244.94,Single-ply,SBD,F
Girls,60.1,6,Faith Wood,Blooming Grove,57.79,88.45,56.7,95.25,240.4,Single-ply,SBD,F
Girls,60.1,7,Miranda Chappell,Waxahachie Life,59.24,90.72,40.82,104.33,235.87,Single-ply,SBD,F
Girls,60.1,8,Alexis Hankins,Corsicana,58.97,74.84,36.29,113.4,224.53,Single-ply,SBD,F
Girls,60.1,9,Trinity Bullard,Corsicana Mildred,60.06,70.31,45.36,72.57,188.24,Single-ply,SBD,F
Girls,60.1,10,Abigail Salinas,Itasca,56.43,70.31,31.75,83.91,185.97,Single-ply,SBD,F
Girls,60.1,11,Skyler Cummings,Hubbard,59.78,49.9,36.29,65.77,151.95,Single-ply,SBD,F
Girls,60.1,DQ,Carolina Fragoso,Itasca,60.06,86.18,,,,Single-ply,SBD,F
Girls,60.1,DQ,Cheyenne Willis,Wills Point,59.33,83.91,,,,Single-ply,SBD,F
Girls,60.1,DQ,Regan Wilkerson,Whitney,59.42,111.13,,,,Single-ply,SBD,F
Girls,67.36,1,Hunter Klish,West,63.96,145.15,70.31,133.81,349.27,Single-ply,SBD,F
Girls,67.36,2,Olivia McMath,Wills Point,65.95,142.88,77.11,129.27,349.27,Single-ply,SBD,F
Girls,67.36,3,Claire Barham,Blooming Grove,65.59,124.74,61.23,115.67,301.64,Single-ply,SBD,F
Girls,67.36,4,Corbin Stulir,Rio Vista,65.59,124.74,56.7,113.4,294.84,Single-ply,SBD,F
Girls,67.36,5,Courtney Parker,Kemp,64.14,117.93,52.16,122.47,292.57,Single-ply,SBD,F
Girls,67.36,6,Cheslie Kirkland,Mabank,62.32,120.2,52.16,115.67,288.03,Single-ply,SBD,F
Girls,67.36,7,Coral Martinez,West,64.86,117.93,58.97,106.59,283.5,Single-ply,SBD,F
Girls,67.36,8,Abbey Stinson,Royse City,64.05,122.47,38.56,113.4,274.42,Single-ply,SBD,F
Girls,67.36,9,Saige Klor,Midlothian Heritage,65.23,102.06,52.16,120.2,274.42,Single-ply,SBD,F
Girls,67.36,10,Kirstyn Ward,Whitney,65.59,111.13,47.63,113.4,272.16,Single-ply,SBD,F
Girls,67.36,11,Payton Powell,Royse City,65.68,113.4,47.63,111.13,272.16,Single-ply,SBD,F
Girls,67.36,12,Breann Bradley,Groesbeck,63.32,102.06,58.97,108.86,269.89,Single-ply,SBD,F
Girls,67.36,13,Demona Carrol,Mexia,61.14,104.33,54.43,108.86,267.62,Single-ply,SBD,F
Girls,67.36,14,Juliana Pologruto,Midlothian Heritage,63.96,97.52,49.9,106.59,254.01,Single-ply,SBD,F
Girls,67.36,15,Erica Rodriguez,Hillsboro,64.05,106.59,52.16,90.72,249.48,Single-ply,SBD,F
Girls,67.36,16,Eliza Kent,Red Oak,62.6,102.06,45.36,90.72,238.14,Single-ply,SBD,F
Girls,67.36,17,Lindsey Garner,Waxahachie Life,66.95,83.91,49.9,102.06,235.87,Single-ply,SBD,F
Girls,67.36,18,Kara Mahoney,Midlothian Heritage,64.05,88.45,47.63,92.99,229.06,Single-ply,SBD,F
Girls,67.36,19,Summer Houpt,Whitney,64.77,83.91,38.56,97.52,219.99,Single-ply,SBD,F
Girls,67.36,20,Vanessa Cervantes,Corsicana,65.86,74.84,36.29,90.72,201.85,Single-ply,SBD,F
Girls,67.36,21,Claire Coleman,Hubbard,62.6,77.11,38.56,83.91,199.58,Single-ply,SBD,F
Girls,67.36,22,Sabrina Bryan,Midlothian Heritage,66.77,70.31,43.09,86.18,199.58,Single-ply,SBD,F
Girls,67.36,23,C Peacock,Red Oak,64.41,68.04,27.22,74.84,170.1,Single-ply,SBD,F
Girls,67.36,24,Kassandra Meraz,Dallas Life Oak Cliff,66.22,52.16,38.56,70.31,161.03,Single-ply,SBD,F
Girls,67.36,DQ,C. Meyers,Red Oak,65.14,,,,,Single-ply,SBD,F
Girls,75.07,1,Raquel Balderas,Blooming Grove,68.13,147.42,92.99,149.69,390.09,Single-ply,SBD,F
Girls,75.07,2,Lilly Perez,West,74.12,138.35,90.72,129.27,358.34,Single-ply,SBD,F
Girls,75.07,3,Jenna Maler,West,70.4,136.08,68.04,120.2,324.32,Single-ply,SBD,F
Girls,75.07,4,Salma Ramirez,Hillsboro,68.95,136.08,68.04,117.93,322.05,Single-ply,SBD,F
Girls,75.07,5,Annette Casteneda,Hillsboro,70.31,136.08,63.5,111.13,310.71,Single-ply,SBD,F
Girls,75.07,6,Guadalupe Garcia,Eustace,73.12,127.01,40.82,117.93,285.76,Single-ply,SBD,F
Girls,75.07,7,Allyson Rea,Hillsboro,72.03,104.33,68.04,102.06,274.42,Single-ply,SBD,F
Girls,75.07,8,Tamaia Henry,Dawson,68.13,97.52,56.7,111.13,265.35,Single-ply,SBD,F
Girls,75.07,9,Tiaz Hwkins,Corsicana,73.48,95.25,43.09,111.13,249.48,Single-ply,SBD,F
Girls,75.07,10,Makayla Miller,Palmer,74.93,92.99,58.97,97.52,249.48,Single-ply,SBD,F
Girls,75.07,11,Briann Wamer,Palmer,72.76,86.18,49.9,102.06,238.14,Single-ply,SBD,F
Girls,75.07,12,Lexie Beaird,Itasca,70.94,92.99,36.29,106.59,235.87,Single-ply,SBD,F
Girls,75.07,13,Brice Sheperd,Corsicana Mildred,69.4,90.72,45.36,90.72,226.8,Single-ply,SBD,F
Girls,75.07,14,Elizabeth Vera,Palmer,72.39,81.65,45.36,99.79,226.8,Single-ply,SBD,F
Girls,75.07,15,Teela Polk,Corsicana,73.39,83.91,38.56,92.99,215.46,Single-ply,SBD,F
Girls,75.07,16,Kylie Cummings,Hubbard,69.13,86.18,49.9,77.11,213.19,Single-ply,SBD,F
Girls,75.07,17,Mica Harvey,Waxahachie Life,71.21,74.84,36.29,81.65,192.78,Single-ply,SBD,F
Girls,75.07,18,Dominique Evans,Dallas Life Oak Cliff,69.94,65.77,31.75,86.18,183.7,Single-ply,SBD,F
Girls,75.07,19,Brianna Shaw,Midlothian Heritage,73.48,61.23,29.48,90.72,181.44,Single-ply,SBD,F
Girls,75.07,DQ,Nahomi Guevara,Mexia,71.4,,,,,Single-ply,SBD,F
Girls,75.07,DQ,Bethany Alexander,Kemp,71.12,,,,,Single-ply,SBD,F
Girls,75.07,DQ,Trinata Montez,West,72.12,,,,,Single-ply,SBD,F
Girls,75.07,DQ,Cheyenne Rhea,Blooming Grove,67.95,,,,,Single-ply,SBD,F
Girls,75.07,DQ,Monserrat Serrano,Hillsboro,73.84,158.76,63.5,,,Single-ply,SBD,F
Girls,75.07,DQ,Jaden Monterrubio,Hillsboro,68.22,97.52,,,,Single-ply,SBD,F
Girls,75.07,DQ,Hannah Middleton,Corsicana Mildred,67.95,,,,,Single-ply,SBD,F
Girls,82.33,1,Tyler Pyburn,Blooming Grove,79.02,136.08,70.31,151.95,358.34,Single-ply,SBD,F
Girls,82.33,2,Madi Waddle,Groesbeck,80.01,145.15,83.91,129.27,358.34,Single-ply,SBD,F
Girls,82.33,3,Alyssa Moore,Kemp,77.2,140.61,74.84,133.81,349.27,Single-ply,SBD,F
Girls,82.33,4,Jayla Banks,Mexia,76.93,140.61,52.16,129.27,322.05,Single-ply,SBD,F
Girls,82.33,5,Aspen Holm,Royse City,77.2,122.47,58.97,131.54,312.98,Single-ply,SBD,F
Girls,82.33,6,Jaedyn Campos,Hillsboro,80.74,127.01,70.31,102.06,299.37,Single-ply,SBD,F
Girls,82.33,7,Versonyca Reeves,Mexia,76.48,115.67,68.04,108.86,292.57,Single-ply,SBD,F
Girls,82.33,8,Jacey Coston,Dawson,81.19,102.06,65.77,122.47,290.3,Single-ply,SBD,F
Girls,82.33,9,Brooklyn Thompson,Teague,78.93,111.13,49.9,124.74,285.76,Single-ply,SBD,F
Girls,82.33,10,Violeta Compean,Royse City,80.1,115.67,49.9,120.2,285.76,Single-ply,SBD,F
Girls,82.33,11,Vicky Romo,Eustace,77.56,113.4,52.16,106.59,272.16,Single-ply,SBD,F
Girls,82.33,12,Melanie Farmer,Cayuga,75.39,92.99,43.09,99.79,235.87,Single-ply,SBD,F
Girls,82.33,13,Samantha Harrah,Rio Vista,78.65,79.38,49.9,102.06,231.33,Single-ply,SBD,F
Girls,82.33,14,Summer Settlemeyer,Wortham,80.56,102.06,31.75,97.52,231.33,Single-ply,SBD,F
Girls,82.33,15,Noelia Cruz,Itasca,81.01,83.91,38.56,106.59,229.06,Single-ply,SBD,F
Girls,82.33,DQ,Wilisia Swinton,Royse City,77.29,,,,,Single-ply,SBD,F
Girls,82.33,DQ,Maddi Griffith,Mabank,78.74,,,,,Single-ply,SBD,F
Girls,82.33,DQ,Carley Cline,Mabank,76.11,,,,,Single-ply,SBD,F
Girls,90.04,1,Lillie Izquierdo,Hillsboro,83.46,174.63,63.5,151.95,390.09,Single-ply,SBD,F
Girls,90.04,2,Rheagan White,Royse City,87.27,124.74,61.23,185.97,371.95,Single-ply,SBD,F
Girls,90.04,3,Jackie Yanez,Rice,88.99,131.54,72.57,136.08,340.19,Single-ply,SBD,F
Girls,90.04,4,Abby Huitt,Corsicana Mildred,87,127.01,74.84,133.81,335.66,Single-ply,SBD,F
Girls,90.04,5,Ashlyn Burke,Eustace,88.63,129.27,79.38,115.67,324.32,Single-ply,SBD,F
Girls,90.04,6,Zariahya Carter,Mexia,82.83,138.35,61.23,120.2,319.78,Single-ply,SBD,F
Girls,90.04,7,Jamie Comer,Mexia,86.18,117.93,63.5,111.13,292.57,Single-ply,SBD,F
Girls,90.04,8,Brooke Smith,Mabank,83.19,115.67,54.43,97.52,267.62,Single-ply,SBD,F
Girls,90.04,9,Brandy Rangel,Wills Point,86,90.72,45.36,108.86,244.94,Single-ply,SBD,F
Girls,90.04,10,Kaylee Flowers,Cayuga,87.91,102.06,43.09,90.72,235.87,Single-ply,SBD,F
Girls,90.04,DQ,Harry Junie,Corsicana,87.09,,,,,Single-ply,SBD,F
Girls,100.02,1,Bekah Parks,Teague,93.17,197.31,95.25,163.29,455.86,Single-ply,SBD,F
Girls,100.02,2,Hope Goodrich,Mexia,93.35,140.61,86.18,124.74,351.53,Single-ply,SBD,F
Girls,100.02,3,Bryanna Stotts,Cayuga,97.34,156.49,54.43,122.47,333.39,Single-ply,SBD,F
Girls,100.02,4,Aliciya Banks,Mexia,99.61,115.67,61.23,127.01,303.91,Single-ply,SBD,F
Girls,100.02,5,Adrianne Autrey,Whitney,99.43,122.47,56.7,106.59,285.76,Single-ply,SBD,F
Girls,100.02,6,Tori Sanderson,Kemp,95.16,111.13,58.97,106.59,276.69,Single-ply,SBD,F
Girls,100.02,7,Jacinda Williams,Blooming Grove,91.72,102.06,63.5,106.59,272.16,Single-ply,SBD,F
Girls,100.02,8,McKayla Hand,Palmer,99.88,106.59,52.16,106.59,265.35,Single-ply,SBD,F
Girls,100.02,9,Ashleigh Raymond,Groesbeck,93.98,83.91,45.36,108.86,238.14,Single-ply,SBD,F
Girls,100.02,10,Natalie Emanuel,Dallas Life Oak Cliff,91.72,65.77,43.09,83.91,192.78,Single-ply,SBD,F
Girls,100.02,DQ,Tabitha Barksdale,Waxahachie Life,94.44,,,,,Single-ply,SBD,F
Girls,100.02,DQ,Emily Turney,Palmer,99.97,111.13,,,,Single-ply,SBD,F
Girls,117.71,1,Brionna Mosley,Dallas Life Oak Cliff,109.04,151.95,70.31,158.76,381.02,Single-ply,SBD,F
Girls,117.71,2,Katarina Cassel,Rice,102.87,136.08,113.4,127.01,376.48,Single-ply,SBD,F
Girls,117.71,3,Halee McCaslin,Corsicana Mildred,111.4,145.15,95.25,127.01,367.41,Single-ply,SBD,F
Girls,117.71,4,Courtney Bayer,Blooming Grove,116.66,133.81,74.84,145.15,353.8,Single-ply,SBD,F
Girls,117.71,5,Delanie Spakes,Kemp,114.94,147.42,77.11,120.2,344.73,Single-ply,SBD,F
Girls,117.71,6,Amanda Meyerholtz,Rio Vista,103.42,140.61,63.5,136.08,340.19,Single-ply,SBD,F
Girls,117.71,7,Taja Davis,Dallas Life Oak Cliff,105.6,138.35,52.16,136.08,326.59,Single-ply,SBD,F
Girls,117.71,8,Derica Pipkin,Corsicana,104.87,102.06,68.04,136.08,306.17,Single-ply,SBD,F
Girls,117.71,9,Alexis Payne,Palmer,111.4,124.74,70.31,111.13,306.17,Single-ply,SBD,F
Girls,117.71,10,Maria Ruiz,Corsicana,117.66,111.13,49.9,124.74,285.76,Single-ply,SBD,F
Girls,117.71,11,Kamryn Nicholes,Mexia,103.96,104.33,56.7,90.72,251.74,Single-ply,SBD,F
Girls,117.71,DQ,Kati Reese,Mabank,108.41,136.08,,,,Single-ply,SBD,F
Girls,117.71,DQ,A. Colwell,Red Oak,102.24,,,,,Single-ply,SBD,F
Girls,117.71,DQ,Kalyn Williams,Waxahachie Life,104.05,,,,,Single-ply,SBD,F
Girls,117.71,DQ,Maricela Compean,Royse City,101.42,,,,,Single-ply,SBD,F
Girls,117.71,DQ,Jewellen Fort,Royse City,114.76,,,,,Single-ply,SBD,F
Girls,117.71+,1,Andrea Beasley,Kemp,126.64,229.06,117.93,158.76,505.76,Single-ply,SBD,F
Girls,117.71+,2,Lori Gutierrez,Corsicana,122.02,163.29,61.23,127.01,351.53,Single-ply,SBD,F
Girls,117.71+,3,Madison Sykes,Corsicana,130,117.93,61.23,145.15,324.32,Single-ply,SBD,F
Girls,117.71+,4,Miller Kyra,Corsicana,122.83,97.52,49.9,117.93,265.35,Single-ply,SBD,F
Girls,117.71+,DQ,Mackenzie Commander,Mexia,125.92,,,,,Single-ply,SBD,F
