Division,WeightClassKg,Place,Name,Team,BodyweightKg,Best3SquatKg,Best3BenchKg,Best3DeadliftKg,TotalKg,Equipment,Event,Sex
Boys,51.71,1,Noah Perez,Abilene,50.89,99.79,52.16,117.93,269.89,Single-ply,SBD,M
Boys,51.71,2,Caleb Chacon,Merkel,50.35,95.25,58.97,108.86,263.08,Single-ply,SBD,M
Boys,51.71,3,Jayton Pimentel,Clyde,49.53,90.72,58.97,92.99,242.67,Single-ply,SBD,M
Boys,51.71,4,Christian Martin,Abilene Cooper,51.07,92.99,43.09,90.72,226.8,Single-ply,SBD,M
Boys,51.71,5,Jason Webster,Abilene Cooper,50.8,74.84,38.56,90.72,204.12,Single-ply,SBD,M
Boys,51.71,DQ,Eric Leach,Tuscola Jim Ned,45.72,,,,,Single-ply,SBD,M
Boys,55.79,1,Adam Hathaway,Merkel,55.79,108.86,58.97,136.08,303.91,Single-ply,SBD,M
Boys,55.79,2,Angel Marin,Abilene,53.8,102.06,45.36,124.74,272.16,Single-ply,SBD,M
Boys,55.79,3,Brody Stanford,Abilene Cooper,53.8,102.06,52.16,104.33,258.55,Single-ply,SBD,M
Boys,55.79,DQ,Lleyton Fraizer,Tuscola Jim Ned,55.07,,,,,Single-ply,SBD,M
Boys,59.87,1,Alec Arredondo,Abilene,57.88,149.69,86.18,161.03,396.89,Single-ply,SBD,M
Boys,59.87,2,Matthew Gray,Tuscola Jim Ned,59.06,140.61,72.57,161.03,374.21,Single-ply,SBD,M
Boys,59.87,3,Riley Perry,Tuscola Jim Ned,58.79,138.35,88.45,136.08,362.87,Single-ply,SBD,M
Boys,59.87,4,Carson Parker,Merkel,59.06,120.2,74.84,136.08,331.12,Single-ply,SBD,M
Boys,59.87,5,Austin Tobar,Abilene Cooper,58.79,117.93,77.11,120.2,315.25,Single-ply,SBD,M
Boys,59.87,6,Kirkland Leverett,Abilene,59.87,108.86,58.97,129.27,297.1,Single-ply,SBD,M
Boys,59.87,DQ,Jackson Heidenheimer,Anson,58.6,122.47,63.5,,,Single-ply,SBD,M
Boys,67.13,1,Jayce Hardee,Hawley,63.78,165.56,102.06,165.56,433.18,Single-ply,SBD,M
Boys,67.13,2,Bryce Munoz,Anson,62.78,167.83,81.65,174.63,424.11,Single-ply,SBD,M
Boys,67.13,3,Zach Burt,Hawley,66.04,158.76,102.06,158.76,419.57,Single-ply,SBD,M
Boys,67.13,4,Rj Hoffman,Clyde,66.13,174.63,77.11,145.15,396.89,Single-ply,SBD,M
Boys,67.13,5,Kendal Adames,Sweetwater,65.77,138.35,90.72,163.29,392.36,Single-ply,SBD,M
Boys,67.13,6,Bo Baker,Clyde,64.5,151.95,79.38,154.22,385.55,Single-ply,SBD,M
Boys,67.13,7,Clayton Sparks,Merkel,62.96,120.2,63.5,142.88,326.59,Single-ply,SBD,M
Boys,67.13,8,Joe Angel Torres,Abilene,62.14,117.93,65.77,117.93,301.64,Single-ply,SBD,M
Boys,74.84,1,Tristan Wegener,Hawley,71.4,183.7,133.81,161.03,478.54,Single-ply,SBD,M
Boys,74.84,2,Austin Eubanks,Clyde,70.76,192.78,88.45,170.1,451.32,Single-ply,SBD,M
Boys,74.84,3,Jacob Contreras,Tuscola Jim Ned,71.67,154.22,90.72,183.7,428.64,Single-ply,SBD,M
Boys,74.84,4,Michael Schubert,Abilene Cooper,70.76,147.42,83.91,192.78,424.11,Single-ply,SBD,M
Boys,74.84,5,Zackary Yost,Clyde,73.21,172.37,95.25,156.49,424.11,Single-ply,SBD,M
Boys,74.84,6,Elijah Moser,Anson,73.66,149.69,88.45,183.7,421.84,Single-ply,SBD,M
Boys,74.84,7,Julio Acevedo,Roby,72.76,163.29,83.91,165.56,412.77,Single-ply,SBD,M
Boys,74.84,8,Marcus Garner,Abilene Cooper,73.84,142.88,97.52,158.76,399.16,Single-ply,SBD,M
Boys,74.84,9,Tyler Crawford,Clyde,68.86,151.95,90.72,136.08,378.75,Single-ply,SBD,M
Boys,74.84,10,Rhett Payne,Tuscola Jim Ned,67.95,138.35,81.65,149.69,369.68,Single-ply,SBD,M
Boys,74.84,11,Dillon McCoy,Tuscola Jim Ned,72.48,131.54,81.65,154.22,367.41,Single-ply,SBD,M
Boys,74.84,12,Drew Hagler,Anson,71.85,147.42,72.57,140.61,360.61,Single-ply,SBD,M
Boys,82.1,1,Ethan Tapia,Clyde,82.1,215.46,145.15,195.04,555.65,Single-ply,SBD,M
Boys,82.1,2,Donovan Gomez,Clyde,81.65,217.72,122.47,197.31,537.51,Single-ply,SBD,M
Boys,82.1,3,Actavias Lowry,Abilene Cooper,81.83,190.51,131.54,192.78,514.83,Single-ply,SBD,M
Boys,82.1,4,Gabriel Salazar,Sweetwater,76.75,181.44,111.13,208.65,501.22,Single-ply,SBD,M
Boys,82.1,5,Chase Brooks,Abilene Cooper,82.01,181.44,102.06,174.63,458.13,Single-ply,SBD,M
Boys,82.1,6,Shawn Howell,Roby,79.83,181.44,83.91,185.97,451.32,Single-ply,SBD,M
Boys,82.1,7,Donte Mitchell,Abilene Cooper,81.47,158.76,106.59,183.7,449.06,Single-ply,SBD,M
Boys,82.1,8,Casey Hall,Tuscola Jim Ned,77.29,151.95,97.52,181.44,430.91,Single-ply,SBD,M
Boys,82.1,9,Antwan Louis,Abilene Cooper,77.84,170.1,74.84,170.1,415.04,Single-ply,SBD,M
Boys,82.1,10,Chris Reeves,Merkel,78.2,154.22,90.72,158.76,403.7,Single-ply,SBD,M
Boys,82.1,11,Preston Freeman,Tuscola Jim Ned,79.92,145.15,90.72,165.56,401.43,Single-ply,SBD,M
Boys,82.1,12,John Wheeler,Tuscola Jim Ned,81.37,156.49,90.72,149.69,396.89,Single-ply,SBD,M
Boys,82.1,13,Jacob Dearing,Merkel,80.65,133.81,83.91,142.88,360.61,Single-ply,SBD,M
Boys,82.1,14,Leo Garcia-Sanchez,Hawley,77.11,90.72,70.31,136.08,297.1,Single-ply,SBD,M
Boys,82.1,DQ,Nick Powell,Abilene Cooper,80.1,,,,,Single-ply,SBD,M
Boys,89.81,1,Matt Holmes,Merkel,86.36,244.94,151.95,238.14,635.03,Single-ply,SBD,M
Boys,89.81,2,Devin Romero,Abilene,85.37,235.87,120.2,231.33,587.4,Single-ply,SBD,M
Boys,89.81,3,Eduardo Marin,Anson,83.1,185.97,104.33,176.9,467.2,Single-ply,SBD,M
Boys,89.81,4,Tyrees Whitfield,Abilene Cooper,87,156.49,113.4,183.7,453.59,Single-ply,SBD,M
Boys,89.81,5,Morgan Porter,Clyde,85.46,176.9,97.52,163.29,437.72,Single-ply,SBD,M
Boys,89.81,6,Jacob Hutton,Abilene,88.9,163.29,81.65,158.76,403.7,Single-ply,SBD,M
Boys,89.81,7,Xavier Rodriguez,Anson,83.01,165.56,77.11,158.76,401.43,Single-ply,SBD,M
Boys,89.81,8,Evan Andrews,Merkel,89.54,158.76,77.11,163.29,399.16,Single-ply,SBD,M
Boys,99.79,1,Tanner Schnoor,Hawley,93.71,235.87,122.47,244.94,603.28,Single-ply,SBD,M
Boys,99.79,2,Braden Kesler,Tuscola Jim Ned,97.98,217.72,108.86,272.16,598.74,Single-ply,SBD,M
Boys,99.79,3,Jessy Villagomez,Roby,98.88,229.06,127.01,233.6,589.67,Single-ply,SBD,M
Boys,99.79,4,Junior Lawhon,Sweetwater,95.8,195.04,136.08,188.24,519.36,Single-ply,SBD,M
Boys,99.79,5,Tye Landeros,Tuscola Jim Ned,98.79,215.46,115.67,181.44,512.56,Single-ply,SBD,M
Boys,99.79,6,Caleb Willis,Clyde,92.53,204.12,111.13,188.24,503.49,Single-ply,SBD,M
Boys,99.79,7,Brandon Romero,Abilene Cooper,94.53,204.12,111.13,181.44,496.68,Single-ply,SBD,M
Boys,99.79,8,Jacob Turner,Tuscola Jim Ned,93.35,176.9,95.25,210.92,483.08,Single-ply,SBD,M
Boys,99.79,9,Mateo Valero,Abilene Cooper,99.34,183.7,95.25,170.1,449.06,Single-ply,SBD,M
Boys,99.79,10,Cooper Graham,Anson,96.25,163.29,83.91,181.44,428.64,Single-ply,SBD,M
Boys,99.79,11,Donnie Brooks,Merkel,94.17,145.15,88.45,113.4,347,Single-ply,SBD,M
Boys,109.77,1,Brandon Padilla,Anson,104.51,242.67,136.08,231.33,610.08,Single-ply,SBD,M
Boys,109.77,2,Raymond Delgado,Sweetwater,101.33,188.24,140.61,201.85,530.7,Single-ply,SBD,M
Boys,109.77,3,Zack Thompson,Abilene,103.42,219.99,129.27,181.44,530.7,Single-ply,SBD,M
Boys,109.77,4,Israel DelaCruz,Anson,109.77,201.85,113.4,185.97,501.22,Single-ply,SBD,M
Boys,109.77,5,Brian Palacios,Abilene,102.24,217.72,97.52,179.17,494.42,Single-ply,SBD,M
Boys,109.77,6,Tim Balderas,Abilene Cooper,107.86,179.17,129.27,176.9,485.34,Single-ply,SBD,M
Boys,109.77,7,Austin Schoonmaker,Clyde,101.6,181.44,120.2,179.17,480.81,Single-ply,SBD,M
Boys,109.77,8,Eddie Hernandez,Anson,108.59,192.78,90.72,185.97,469.47,Single-ply,SBD,M
Boys,109.77,9,Luis Barrientes,Abilene,109.04,190.51,106.59,170.1,467.2,Single-ply,SBD,M
Boys,109.77,10,Josh Elliott,Abilene Cooper,107.41,165.56,113.4,165.56,444.52,Single-ply,SBD,M
Boys,109.77,11,Triston Patterson,Tuscola Jim Ned,104.05,167.83,97.52,167.83,433.18,Single-ply,SBD,M
Boys,109.77,12,Gavin Reyes,Sweetwater,105.14,142.88,92.99,172.37,408.23,Single-ply,SBD,M
Boys,109.77,DQ,Derick Palacios,Sweetwater,103.6,151.95,,,,Single-ply,SBD,M
Boys,109.77,DQ,Taylor Cullum,Merkel,107.86,179.17,,,,Single-ply,SBD,M
Boys,124.74,1,Carlos Gallegos,Sweetwater,117.57,219.99,136.08,195.04,551.11,Single-ply,SBD,M
Boys,124.74,2,Miguel Valdez,Clyde,115.67,208.65,140.61,188.24,537.51,Single-ply,SBD,M
Boys,124.74,3,CJ Ugalde,Merkel,116.57,181.44,120.2,179.17,480.81,Single-ply,SBD,M
Boys,124.74,4,Collin Gardner,Anson,113.94,195.04,108.86,174.63,478.54,Single-ply,SBD,M
Boys,124.74,5,David Schuman,Merkel,110.59,190.51,115.67,165.56,471.74,Single-ply,SBD,M
Boys,124.74,6,Caleb McVey,Abilene Cooper,124.19,183.7,111.13,151.95,446.79,Single-ply,SBD,M
Boys,124.74,7,Javier Santana,Abilene,114.94,158.76,81.65,142.88,383.29,Single-ply,SBD,M
Boys,124.74,8,Khalil Spivey,Abilene,112.4,145.15,70.31,145.15,360.61,Single-ply,SBD,M
Boys,124.74,9,Cole Pendleton,Tuscola Jim Ned,110.95,136.08,86.18,136.08,358.34,Single-ply,SBD,M
Boys,124.74+,1,John Adkins,Clyde,125.92,235.87,136.08,226.8,598.74,Single-ply,SBD,M
Boys,124.74+,2,Jeremiah Barrera,Sweetwater,130.45,231.33,117.93,226.8,576.06,Single-ply,SBD,M
Boys,124.74+,3,Quadryll Ramirez,Abilene,155.04,219.99,133.81,208.65,562.45,Single-ply,SBD,M
Boys,124.74+,4,Chris De La Garza,Clyde,144.51,226.8,133.81,195.04,555.65,Single-ply,SBD,M
Boys,124.74+,5,Ricardo Rios,Abilene Cooper,136.08,190.51,106.59,190.51,487.61,Single-ply,SBD,M
Boys,124.74+,6,Devon Cosby,Abilene Cooper,132.18,176.9,106.59,185.97,469.47,Single-ply,SBD,M
