Division,WeightClassKg,Place,Name,Team,BodyweightKg,Best3SquatKg,Best3BenchKg,Best3DeadliftKg,TotalKg,Equipment,Event,Sex
Girls,44.23,1,Vielka Rivera,Zapata,44,68.04,34.02,81.65,183.7,Single-ply,SBD,F
Girls,47.85,1,Mariah Alaniz,Freer,47.26,113.4,49.9,113.4,276.69,Single-ply,SBD,F
Girls,47.85,2,Stephany Villarreal,Zapata,47.63,95.25,63.5,111.13,269.89,Single-ply,SBD,F
Girls,47.85,3,Ayssa Hinojosa,Hebbronville,47.63,104.33,36.29,117.93,258.55,Single-ply,SBD,F
Girls,47.85,4,Savanna Sanchez,Benavides,46.36,90.72,40.82,106.59,238.14,Single-ply,SBD,F
Girls,47.85,5,Ashley Rios,Corpus Christi Tuloso-Midway,47.63,90.72,38.56,106.59,235.87,Single-ply,SBD,F
Girls,47.85,6,Myndi Garcia,Corpus Christi Tuloso-Midway,46.08,92.99,31.75,74.84,199.58,Single-ply,SBD,F
Girls,47.85,7,Zarina Molina,Hebbronville,46.08,79.38,31.75,86.18,197.31,Single-ply,SBD,F
Girls,47.85,DQ,Gabby Garza,Corpus Christi Tuloso-Midway,45.9,,,,,Single-ply,SBD,F
Girls,51.94,1,Mia Reyes,Corpus Christi Tuloso-Midway,50.98,138.35,61.23,131.54,331.12,Single-ply,SBD,F
Girls,51.94,2,Hope Davila,Corpus Christi Tuloso-Midway,50.26,133.81,56.7,129.27,319.78,Single-ply,SBD,F
Girls,51.94,3,Mireya Cantu,Hebbronville,51.35,117.93,52.16,104.33,274.42,Single-ply,SBD,F
Girls,51.94,4,Dashae Atkinson,Hebbronville,51.71,99.79,52.16,102.06,254.01,Single-ply,SBD,F
Girls,51.94,5,Virginia Gallegos,Carrizo Springs,49.71,45.36,31.75,86.18,163.29,Single-ply,SBD,F
Girls,56.02,1,Kailey Castillo,Corpus Christi Tuloso-Midway,55.7,140.61,72.57,120.2,333.39,Single-ply,SBD,F
Girls,56.02,2,Carolina Flores,Hebbronville,54.88,122.47,56.7,136.08,315.25,Single-ply,SBD,F
Girls,56.02,3,Madison Salinas,Hebbronville,55.79,122.47,56.7,136.08,315.25,Single-ply,SBD,F
Girls,56.02,4,Maryanna Gavilanes,Zapata,55.34,111.13,68.04,117.93,297.1,Single-ply,SBD,F
Girls,56.02,5,Lauren Garza,Freer,53.8,104.33,54.43,106.59,265.35,Single-ply,SBD,F
Girls,56.02,6,Nikole Lopez,Zapata,53.52,99.79,45.36,106.59,251.74,Single-ply,SBD,F
Girls,56.02,7,Emily Allen,Corpus Christi Tuloso-Midway,54.52,83.91,38.56,79.38,201.85,Single-ply,SBD,F
Girls,56.02,8,Ashley Garcia,Zapata,55.79,79.38,38.56,77.11,195.04,Single-ply,SBD,F
Girls,56.02,DQ,Daniela Aguilar,Hebbronville,55.07,99.79,,,,Single-ply,SBD,F
Girls,60.1,1,Julianna Perez,Corpus Christi Tuloso-Midway,59.69,136.08,74.84,133.81,344.73,Single-ply,SBD,F
Girls,60.1,2,Miranda Reyes,Corpus Christi Tuloso-Midway,58.88,129.27,61.23,136.08,326.59,Single-ply,SBD,F
Girls,60.1,3,Ashley Cuellar,Zapata,59.51,113.4,77.11,115.67,306.17,Single-ply,SBD,F
Girls,60.1,4,Evelyn Guerra,Benavides,58.6,102.06,52.16,113.4,267.62,Single-ply,SBD,F
Girls,60.1,5,Desori Garcia,Zapata,59.87,104.33,58.97,104.33,267.62,Single-ply,SBD,F
Girls,60.1,6,Madison Johnson,Corpus Christi Tuloso-Midway,58.88,86.18,45.36,104.33,235.87,Single-ply,SBD,F
Girls,60.1,7,Chelsey Gutierrez,Zapata,59.87,77.11,40.82,88.45,206.38,Single-ply,SBD,F
Girls,67.36,1,Andrea Montes,Zapata,67.22,136.08,74.84,140.61,351.53,Single-ply,SBD,F
Girls,67.36,2,Jolynn Moreno,Hebbronville,66.04,142.88,70.31,122.47,335.66,Single-ply,SBD,F
Girls,67.36,3,Karina Guzman,Zapata,63.05,113.4,70.31,117.93,301.64,Single-ply,SBD,F
Girls,67.36,4,Olivia Ortega,Falfurrias,64.68,120.2,56.7,122.47,299.37,Single-ply,SBD,F
Girls,67.36,5,Ashley Ramirez,Zapata,64.41,106.59,65.77,113.4,285.76,Single-ply,SBD,F
Girls,67.36,6,Kelly Huerta,Carrizo Springs,61.78,115.67,61.23,106.59,283.5,Single-ply,SBD,F
Girls,67.36,7,Courtney Lamontagne,Corpus Christi Tuloso-Midway,64.32,99.79,49.9,113.4,263.08,Single-ply,SBD,F
Girls,67.36,8,Lorena Nino,Corpus Christi Tuloso-Midway,65.86,83.91,45.36,97.52,226.8,Single-ply,SBD,F
Girls,67.36,9,Laura Puente,Carrizo Springs,64.05,79.38,40.82,92.99,213.19,Single-ply,SBD,F
Girls,67.36,10,Andrea Costilla,Carrizo Springs,63.96,56.7,24.95,90.72,172.37,Single-ply,SBD,F
Girls,67.36,DQ,Jackie Reynolds,Carrizo Springs,65.59,40.82,,,,Single-ply,SBD,F
Girls,75.07,1,Allyson Rangel,Freer,73.75,133.81,54.43,142.88,331.12,Single-ply,SBD,F
Girls,75.07,2,Michelle Sanchez,Zapata,74.39,113.4,61.23,108.86,283.5,Single-ply,SBD,F
Girls,75.07,3,Kellie Martinez,Freer,74.57,117.93,54.43,97.52,269.89,Single-ply,SBD,F
Girls,75.07,4,Jazmin Trevino,Zapata,73.57,99.79,49.9,115.67,265.35,Single-ply,SBD,F
Girls,75.07,5,Analeigha Salinas,Freer,73.57,83.91,43.09,92.99,219.99,Single-ply,SBD,F
Girls,75.07,6,Lyneth Chapa,Zapata,68.95,83.91,40.82,88.45,213.19,Single-ply,SBD,F
Girls,75.07,7,Violet Gonzalez,Corpus Christi Tuloso-Midway,69.76,102.06,34.02,70.31,206.38,Single-ply,SBD,F
Girls,82.33,1,Brittney Stafford,Hebbronville,82.28,142.88,88.45,136.08,367.41,Single-ply,SBD,F
Girls,82.33,2,Kimberly Santos,Zapata,79.83,117.93,88.45,127.01,333.39,Single-ply,SBD,F
Girls,82.33,3,Brianna Leal,Freer,81.37,120.2,65.77,115.67,301.64,Single-ply,SBD,F
Girls,82.33,4,Clariza Moreno,Freer,78.2,108.86,52.16,138.35,299.37,Single-ply,SBD,F
Girls,82.33,5,Rosita Robles,Zapata,82.1,147.42,58.97,131.54,337.93,Single-ply,SBD,F
Girls,82.33,6,Mia Leal,Corpus Christi Tuloso-Midway,78.02,97.52,47.63,104.33,249.48,Single-ply,SBD,F
Girls,82.33,7,Gabriella Moreno,Freer,78.56,70.31,38.56,99.79,208.65,Single-ply,SBD,F
Girls,90.04,1,Jackelyn Seiple,Carrizo Springs,89.27,65.77,49.9,70.31,185.97,Single-ply,SBD,F
Girls,100.02,1,Jennifer Lozano,Hebbronville,99.34,210.92,95.25,172.37,478.54,Single-ply,SBD,F
Girls,100.02,2,Kaley Leal,Corpus Christi Tuloso-Midway,94.62,158.76,68.04,174.63,401.43,Single-ply,SBD,F
Girls,100.02,3,Sierra Caro,Falfurrias,96.71,174.63,70.31,142.88,387.82,Single-ply,SBD,F
Girls,100.02,4,Juanita Torres,Carrizo Springs,92.35,136.08,63.5,124.74,324.32,Single-ply,SBD,F
Girls,100.02,5,Liliana Martinez,Carrizo Springs,92.35,122.47,61.23,127.01,310.71,Single-ply,SBD,F
Girls,100.02,6,Analydia Montes,Corpus Christi Tuloso-Midway,97.79,136.08,52.16,111.13,299.37,Single-ply,SBD,F
Girls,100.02,7,Jadyn Garcia,Corpus Christi Tuloso-Midway,94.98,99.79,52.16,92.99,244.94,Single-ply,SBD,F
Girls,100.02,8,Karina Martinez,Carrizo Springs,92.26,38.56,29.48,79.38,147.42,Single-ply,SBD,F
Girls,117.71,1,Raelene Chavez,Corpus Christi Tuloso-Midway,115.76,199.58,88.45,136.08,424.11,Single-ply,SBD,F
Girls,117.71,2,Marlayna Garcia,Zapata,102.74,158.76,72.57,167.83,399.16,Single-ply,SBD,F
Girls,117.71,3,Victoria Gonzalez,Carrizo Springs,103.78,79.38,47.63,95.25,222.26,Single-ply,SBD,F
Girls,117.71+,1,Shania Zapata,Benavides,122.29,142.88,63.5,140.61,347,Single-ply,SBD,F
